[{"name":"Zodiac","image":"http://eu.briskdev.com/media/catalog/category/sternzeichen.jpg"},
    {"name":"Wonder","image":"http://eu.briskdev.com/media/catalog/category/absolutelymad_1024x1024_fb764091-d54c-4231-ada5-729a76d08670.jpeg"},
    {"name":"Wizardry","image":"http://eu.briskdev.com/media/catalog/category/snitch-gold_1024x1024_65fb8836-bb4f-4043-ad14-7eedf04e54bb.jpeg"},
    {"name":"Tribute","image":"http://eu.briskdev.com/media/catalog/category/tribute.jpg"},
    {"name":"Thrones","image":"http://eu.briskdev.com/media/catalog/category/HouseOfTheWolf.jpg"},
    {"name":"Summer Charm","image":"http://eu.briskdev.com/media/catalog/category/Lounge2_2048x2048.jpg"},
    {"name":"Country","image":"http://eu.briskdev.com/media/catalog/category/OLYMPICS_.FRANCE.jpg"},
    {"name":"Spirit","image":"http://eu.briskdev.com/media/catalog/category/Spirit_1024x1024_d3aa649e-73ad-4914-80f5-fa97a75facdd.jpg"},
    {"name":"Shine Tattoos","image":"http://eu.briskdev.com/media/catalog/category/Shine_product_images2.jpeg"},
    {"name":"Relationship","image":"http://eu.briskdev.com/media/catalog/category/relationsship.jpg"},
    {"name":"Monogram Necklaces","image":"http://eu.briskdev.com/media/catalog/category/A.jpg"},
    {"name":"Mindfulness","image":"http://eu.briskdev.com/media/catalog/category/mindful.jpg"},
    {"name":"Jet Set","image":"http://eu.briskdev.com/media/catalog/category/Circular_NewYork-3.jpg"},
    {"name":"Leg Warmers","image":"http://eu.briskdev.com/media/catalog/category/Legwarmers_1024x1024_27d34083-7e67-4092-8101-c45223e1f406.jpg"},
    {"name":"Mermaid","image":"http://eu.briskdev.com/media/catalog/category/kissthegirl2_1024x1024_d4d44ed5-5e94-4653-81f9-b295e76a237d.jpeg"},
    {"name":"Magic","image":"http://eu.briskdev.com/media/catalog/category/wizardry1024.jpeg"},
    {"name":"Angel","image":"http://eu.briskdev.com/media/catalog/category/Angel_1024x1024_945fba98-2bde-4b40-a4f9-35e361010ec0.jpg"},
    {"name":"Baggins","image":"http://eu.briskdev.com/media/catalog/category/baggins-b_1024x1024_cbd18cbc-9769-49e8-b51e-5a7da689372c.jpeg"},
    {"name":"Change the World","image":"http://eu.briskdev.com/media/catalog/category/gold.jpg"},
    {"name":"Frost Collection","image":"http://eu.briskdev.com/media/catalog/category/Frost.jpg"},
    {"name":"Dreamer","image":"http://eu.briskdev.com/media/catalog/category/dreamer.jpg"},
    {"name":"Grey","image":"http://eu.briskdev.com/media/catalog/category/Grey_1024x1024_c8663506-1897-4dbb-90a8-95927e99d1c6.jpg"},
    {"name":"Hope","image":"http://eu.briskdev.com/media/catalog/category/hope.jpg"},
    {"name":"Fantasy","image":"http://eu.briskdev.com/media/catalog/category/fantasy.jpg"},
    {"name":"Euro Cup 2016","image":"http://eu.briskdev.com/media/catalog/category/Italy_Rework.jpg"},
    {"name":"Be Mine","image":"http://eu.briskdev.com/media/catalog/category/BeMine.jpg"},
    {"name":"Circle of Life","image":"http://eu.briskdev.com/media/catalog/category/circleoflife.jpg"},
    {"name":"Expression","image":"http://eu.briskdev.com/media/catalog/category/Journey1024.jpeg"},
    {"name":"Emoticon","image":"http://eu.briskdev.com/media/catalog/category/HAPPY_NEW.jpg"},
    {"name":"Fire Fighter","image":"http://eu.briskdev.com/media/catalog/category/FIRE-FIGHTER-LOVE_copy.jpg"},
    {"name":"Police","image":"http://eu.briskdev.com/media/catalog/category/POLICE-LOVE-BRACELET.jpg"}]
