[{"name":"Allure","image":"http://eu.briskdev.com/media/catalog/product/cache/4/small_image/484x600/beff4985b56e3afdbeabfc89641a4582/a/l/allure_1.jpeg",
    "price":"\u20ac35.00"},{"name":"Always","image":"http://eu.briskdev.com/media/catalog/product/cache/4/small_image/484x600/beff4985b56e3afdbeabfc89641a4582/i/n/infin_1.jpeg",
    "price":"\u20ac34.00"},{"name":"Crush","image":"http://eu.briskdev.com/media/catalog/product/cache/4/small_image/484x600/beff4985b56e3afdbeabfc89641a4582/c/r/crush_1.jpeg",
    "price":"\u20ac37.00"},{"name":"Sweetheart","image":"http://eu.briskdev.com/media/catalog/product/cache/4/small_image/484x600/beff4985b56e3afdbeabfc89641a4582/s/w/sweetheart_1.jpeg",
    "price":"\u20ac39.00"},{"name":"Ties","image":"http://eu.briskdev.com/media/catalog/product/cache/4/small_image/484x600/beff4985b56e3afdbeabfc89641a4582/t/i/ties_1.jpeg",
    "price":"\u20ac42.00"}]